GEOG0114
…
Now, carefully examine each individual dataframe to understand how the data is structured and what information it contains.

R code

# inspect poi data
head(poi24)

Simple feature collection with 6 features and 11 fields
Geometry type: MULTIPOINT
Dimension:     XY
Bounding box:  xmin: 526913.4 ymin: 169695.2 xmax: 526945.5 ymax: 169970.8
Projected CRS: OSGB36 / British National Grid
                                id    primary_name       main_category
1 08f194ada9716b86030eab41bbd4207e "Gorgeous Grub" "burger_restaurant"
2 08f194ada9715a1903d73f4aef170602    "TLC Direct"   "wholesale_store"
3 08f194ada944cba203fa613de4f5e6d5     "JD Sports"       "sports_wear"
4 08f194ada9449a8a0345a466a0a6ece9       "Lidl GB"       "supermarket"
                    alternate_category                                 address
1   eat_and_drink|fast_food_restaurant                 "1 Prince Georges Road"
2 professional_services|lighting_store                      "280 Western Road"
3            sporting_goods|shoe_store "Unit 2 Tandem Centre Top Of Church Rd"
4          retail|fast_food_restaurant                         "Colliers Wood"
         locality   postcode region country source   source_record_id
1        "London"   "SW19 2"  "ENG"    "GB" "meta"  "232538816864698"
2        "London" "SW19 2QA"  "ENG"    "GB" "meta" "1959707454355017"
3 "Colliers Wood" "SW19 2TY"   <NA>    "GB" "meta"  "644899945690935"
4        "London" "SW19 2TY"   <NA>    "GB" "meta"  "111430837210163"
                            geom
1 MULTIPOINT ((526913.4 16984...
2 MULTIPOINT ((526921.1 16969...
3 MULTIPOINT ((526915.7 16997...
4 MULTIPOINT ((526922.2 16988...
 [ reached 'max' / getOption("max.print") -- omitted 2 rows ]

# inspect lsoa dataset
head(lsoa11)

Simple feature collection with 6 features and 10 fields
Geometry type: MULTIPOLYGON
Dimension:     XY
Bounding box:  xmin: 531948.3 ymin: 180733.9 xmax: 545296.2 ymax: 184700.6
Projected CRS: OSGB36 / British National Grid
   lsoa11cd            lsoa11nm           lsoa11nmw  bng_e  bng_n     long
1 E01000001 City of London 001A City of London 001A 532129 181625 -0.09706
2 E01000002 City of London 001B City of London 001B 532480 181699 -0.09197
3 E01000003 City of London 001C City of London 001C 532245 182036 -0.09523
4 E01000005 City of London 001E City of London 001E 533581 181265 -0.07628
       lat                               globalid          lsoa11_name pop2011
1 51.51810 {283B0EAD-F8FC-40B6-9A79-1DDD7E5C0758}  City of London 001A    1465
2 51.51868 {DDCE266B-7825-428C-9E0A-DF66B0179A55}  City of London 001B    1436
3 51.52176 {C45E358E-A794-485A-BF76-D96E5D458EA4}  City of London 001C    1346
4 51.51452 {4DDAF5E4-E47F-4312-89A0-923FFEC028A6}  City of London 001E     985
                            geom
1 MULTIPOLYGON (((532105.1 18...
2 MULTIPOLYGON (((532634.5 18...
3 MULTIPOLYGON (((532135.1 18...
4 MULTIPOLYGON (((533808 1807...
 [ reached 'max' / getOption("max.print") -- omitted 2 rows ]
…
# filter school poi data
lambeth <- borough |>
    filter(name == "Lambeth")

poi_schools <- poi_schools |>
    st_intersection(lambeth) |>
    select(1:11)

# inspect
poi_schools

Simple feature collection with 141 features and 11 fields
Geometry type: POINT
Dimension:     XY
Bounding box:  xmin: 528635.7 ymin: 169846.4 xmax: 533065.9 ymax: 180398
Projected CRS: OSGB36 / British National Grid
First 10 features:
                                 id
6  08f194ad1a394235035f3ab7c2e4721d
7  08f194ad1a8da734035945d69c357ddd
8  08f194ad1abb648603defd9d76b4c314
27 08f194ad130f0cd303c1c9f9b42438f8
                                               primary_name     main_category
6                         "Woodmansterne Children's Centre" elementary_school
7   "Immanuel & St Andrew Church of England Primary School"            school
8  "Monkey Puzzle Day Nursery & Preschool Streatham Common"            school
27                                     "Campsbourne School"            school
                        alternate_category                   address locality
6                         school|education            "Stockport Rd"     <NA>
7              elementary_school|education           "Northanger Rd"     <NA>
8  education|public_service_and_government "496 Streatham High Road" "London"
27                               education                      <NA> "London"
     postcode region country source   source_record_id
6  "SW16 5XE"   <NA>    "GB" "meta"  "114577088601307"
7  "SW16 5SL"   <NA>    "GB" "meta"  "128479257200832"
8  "SW16 3QB"  "ENG"    "GB" "meta" "1092187950854118"
27       <NA>   <NA>    "GB" "meta"  "114411542481619"
                        geom
6  POINT (529701.5 169846.4)
7  POINT (530016.4 170574.1)
8  POINT (530208.6 170587.9)
27 POINT (528819.8 174228.7)
 [ reached 'max' / getOption("max.print") -- omitted 6 rows ]
…
You can inspect the different tags and their frequencies easily by creating a frequency table: table(poi_schools$alternate_category).

R code

# filter school poi data
poi_schools <- poi_schools |>
    filter(str_detect(alternate_category, "elementary_school") | str_detect(alternate_category,
        "high_school") | str_detect(alternate_category, "middle_school") | str_detect(alternate_category,
        "private_school") | str_detect(alternate_category, "public_school"))

# inspect
poi_schools

Simple feature collection with 58 features and 11 fields
Geometry type: POINT
Dimension:     XY
Bounding box:  xmin: 528635.7 ymin: 170025.3 xmax: 532897.2 ymax: 179678.2
Projected CRS: OSGB36 / British National Grid
First 10 features:
                                id
1 08f194ad1a8da734035945d69c357ddd
2 08f194ad1a70460d037da737c256001b
3 08f194ad1c2dc81c032e9e0aa296a8d1
4 08f194ad1e4cec5903fafb7496a2d2f3
                                             primary_name     main_category
1 "Immanuel & St Andrew Church of England Primary School"            school
2                                "Granton Primary School" elementary_school
3                 "Kingswood Primary School (Upper Site)" elementary_school
4                              "Battersea Grammar School"            school
           alternate_category          address locality   postcode region
1 elementary_school|education  "Northanger Rd"     <NA> "SW16 5SL"   <NA>
2        school|public_school     "Granton Rd"     <NA> "SW16 5AN"   <NA>
3          school|high_school "193 Gipsy Road" "London"   "SE27 9"  "ENG"
4       high_school|education             <NA> "London"       <NA>   <NA>
  country source  source_record_id                      geom
1    "GB" "meta" "128479257200832" POINT (530016.4 170574.1)
2    "GB" "meta" "235737420093504" POINT (529299.7 170025.3)
3    "GB" "meta" "110066125723254" POINT (532897.2 171498.4)
4    "GB" "meta" "103107239728950" POINT (529523.9 172310.9)
 [ reached 'max' / getOption("max.print") -- omitted 6 rows ]
…
# filter school poi data
poi_schools <- poi_schools |>
    filter(is.na(postcode) | rank == 1) |>
    select(-rank)

# inspect
poi_schools

Simple feature collection with 54 features and 11 fields
Geometry type: POINT
Dimension:     XY
Bounding box:  xmin: 528635.7 ymin: 170025.3 xmax: 532897.2 ymax: 179678.2
Projected CRS: OSGB36 / British National Grid
# A tibble: 54 × 12
   id    primary_name main_category alternate_category address locality postcode
   <chr> <chr>        <chr>         <chr>              <chr>   <chr>    <chr>   
 1 08f1… "\"Immanuel… school        elementary_school… "\"Nor…  <NA>    "\"SW16…
 2 08f1… "\"Granton … elementary_s… school|public_sch… "\"Gra…  <NA>    "\"SW16…
 3 08f1… "\"Kingswoo… elementary_s… school|high_school "\"193… "\"Lond… "\"SE27…
 4 08f1… "\"Batterse… school        high_school|educa…  <NA>   "\"Lond…  <NA>   
 5 08f1… "\"St Bede'… school        elementary_school… "\"St …  <NA>    "\"SW12…
 6 08f1… "\"St Leona… school        elementary_school… "\"42 … "\"Lond… "\"SW16…
 7 08f1… "\"Richard … elementary_s… college_universit… "\"New…  <NA>    "\"SW2 …
 8 08f1… "\"Henry Ca… school        high_school|eleme… "\"Hyd…  <NA>    "\"SW12…
 9 08f1… "\"South Ba… school        high_school|b2b_s… "\"56 … "\"Lond… "\"SW2 …
10 08f1… "\"Glenbroo… elementary_s… school|public_sch… "\"Cla…  <NA>    "\"SW4 …
# ℹ 44 more rows
# ℹ 5 more variables: region <chr>, country <chr>, source <chr>,
#   source_record_id <chr>, geom <POINT [m]>
…
We can use a similar approach to approximate the locations of fast food outlets in the Borough.

R code

# filter fast food poi data
poi_fastfood <- poi24 |>
    filter(str_detect(main_category, "fast_food_restaurant") | str_detect(alternate_category,
        "fast_food_restaurant") | str_detect(alternate_category, "chicken_restaurant") |
        str_detect(alternate_category, "burger_restaurant"))

# inspect
poi_fastfood

Simple feature collection with 1444 features and 11 fields
Geometry type: MULTIPOINT
Dimension:     XY
Bounding box:  xmin: 526666.3 ymin: 168272.9 xmax: 535546.9 ymax: 182554
Projected CRS: OSGB36 / British National Grid
First 10 features:
                                id     primary_name          main_category
1 08f194ada9716b86030eab41bbd4207e  "Gorgeous Grub"    "burger_restaurant"
2 08f194ada9449a8a0345a466a0a6ece9        "Lidl GB"          "supermarket"
3 08f194ada944daa80328c6604dab3503     "Moss Bros." "men's_clothing_store"
4 08f194ada932ad8603db11bbb7f953a7 "Livi's Cuisine"   "african_restaurant"
                  alternate_category                          address  locality
1 eat_and_drink|fast_food_restaurant          "1 Prince Georges Road"  "London"
2        retail|fast_food_restaurant                  "Colliers Wood"  "London"
3               fast_food_restaurant "Unit 5, Tandem Shopping Centre"  "London"
4       caterer|fast_food_restaurant                   "1 Locks Lane" "Mitcham"
    postcode region country source  source_record_id
1   "SW19 2"  "ENG"    "GB" "meta" "232538816864698"
2 "SW19 2TY"   <NA>    "GB" "meta" "111430837210163"
3 "SW19 2TY"   <NA>    "GB" "meta" "478090646011341"
4    "CR4 2"  "ENG"    "GB" "meta" "231745500530140"
                            geom
1 MULTIPOINT ((526913.4 16984...
2 MULTIPOINT ((526922.2 16988...
3 MULTIPOINT ((526945.5 16992...
4 MULTIPOINT ((527970.3 16955...
 [ reached 'max' / getOption("max.print") -- omitted 6 rows ]
…
